Ronald|Commers, Ten Geleide in Eric Toussaint, Je geld of je leven. VUBPRESS, 1998|Reeds gelezen|Geschiedenis|JI
Benedetto|Croce, Wat is filosofie?. Damon, 2003|Reeds gelezen|Filosofie|JI
Theodore|Dalrymple, Leven aan de onderkant. Het systeem dat de onderklasse in standhoudt. Uitgeverij Het Spectrum, 2004|Reeds gelezen|Filosofie|JI
Charles Darwin, De afstamming van de mens en selectie in relatie tot sekse. Amsterdam: Uitgeverij Nieuwezijds, 2002|Reeds gelezen|Biologie|JI
Richard Daw|ins, The Selfish Gene. Oxford: Oxford University Press, 1976|Reeds gelezen|Biologie|JI
Richard|Dawkins, Kapelaan van de duivel. Amsterdam/Antwerpen: Uitgeverij Contact 2004|Reeds gelezen|Biologie|JI
Herman|Deleeck, De architectuur van de welvaartstaat opnieuw bekeken. acco, 2001|Reeds gelezen|Sociologie|JI
Charles|Darwin, De autobiografie van Charles Darwin. Amsterdam: Uitgeverij Nieuwezijds, 2001|Reeds gelezen|Biologie|JI
E.|De Bruyne, Grondproblemen van de wijsgerige logica. Paleis der Academiën – Hertogstraat, I, 1959|Reeds gelezen|Filosofie|JI
Gita|Deneckere, Sire, het volk mort. Amsab, 1997|Reeds gelezen|Geschiedenis|JI
Gita|Deneckere, Het katoenoproer van Gent in 1839. SUN, 1998|Reeds gelezen|Geschiedenis|JI
Gita|Deneckere, Geuzengeweld. VUBPRESS, 1998|Reeds gelezen|Geschiedenis|JI
F.|De Raedemaeker, De philosophie der Vóórsocratici. Antwerpen: Standaard-Boekhandel, Philosophische Bibliotheek, 1953|Reeds gelezen|Filosofie|JI
Raymond|De Roover, The Rise and Decline of the Medici Bank 1397-1494. Washingthon, D.C.: BeardBooks, 1999|Reeds gelezen|Geschiedenis|JI
Marcel|Detienne en Jean-Pierre Vernant, La cuisine du sacrifice en pays grec. Paris : Gallimard, 1979|Reeds gelezen|Anthropologie|JI
Jacques|D’Hondt, Hegel Secret. PUF, 19862|Reeds gelezen|Filosofie|JI
Jan|Dhondt, Machten en mensen. Jan Dhondt Stichting, 1976|Reeds gelezen|Geschiedenis|JI
F.|Engels, De oorspong van het gezin, van de particuliere eigendom en van de staat. Moskou: Uitgeverij Progress, 1974|Reeds gelezen|Filosofie|JI
|Empedokles, Aarde, Lucht, water en vuur, vertaald door Rein Ferwerda. Atheneum – Polak & Van Gennep, 1997|Reeds gelezen|Filosofie|JI